\relax 
\@writefile{toc}{\contentsline {section}{\numberline {1}Brief overview}{2}}
\@writefile{lof}{\contentsline {figure}{\numberline {1}{\ignorespaces Here a representation of the data reduced in 3 dimensions}}{2}}
\@writefile{lof}{\contentsline {figure}{\numberline {2}{\ignorespaces tot for each activity over the entire dataset and following just for person 1 and for person 2. Find the rest of count in the attached ipython notebook 'HAR spark RForest'}}{3}}
\@writefile{lof}{\contentsline {figure}{\numberline {3}{\ignorespaces the remaining scores can be found in the attached ipynb 'HAR sklearn'}}{3}}
\@writefile{toc}{\contentsline {section}{\numberline {2}Hidden Markov Models}{5}}
\@writefile{toc}{\contentsline {subsection}{\numberline {2.1}Find the proper number of hidden states for each model}{5}}
\@writefile{lof}{\contentsline {figure}{\numberline {4}{\ignorespaces Classification accuracy of the HMMs throughout the stepsof the Leave-onePerson-out cross-validation}}{9}}
\@writefile{toc}{\contentsline {section}{\numberline {3}Other Models}{10}}
\@writefile{toc}{\contentsline {subsection}{\numberline {3.1}Support Vector Machines}{10}}
\@writefile{lof}{\contentsline {figure}{\numberline {5}{\ignorespaces the scores for the other 4 stepst in the LOOcv can be found in the attached ipynb 'HAR sklearn'}}{10}}
\@writefile{toc}{\contentsline {subsection}{\numberline {3.2}Decision Tree and Random Forest Classifiers}{11}}
\@writefile{lof}{\contentsline {figure}{\numberline {6}{\ignorespaces Find code in the attached ipynb 'HAR spark RForest'}}{11}}
\@writefile{toc}{\contentsline {subsection}{\numberline {3.3}Neural Networks: Multi-layer Percepton}{11}}
\@writefile{lof}{\contentsline {figure}{\numberline {7}{\ignorespaces Find code in the attached ipynb 'HAR sklearn'}}{12}}
\@writefile{toc}{\contentsline {section}{\numberline {4}Conclusion}{13}}
